Project 1: Exploratory Data Analysis
…
## # A tibble: 2 x 4
## # Groups:   sex [2]
##   sex    suicides_no population suicides_per_100k_pop
##   <chr>        <dbl>      <dbl>                 <dbl>
## 1 male        276990 1287371387                 21.5 
## 2 female       77103 1324936656                  5.82

full_data %>%
  group_by(year, sex, age, generation) %>%
  summarize(max_suicides_100k_pop = max(`suicides/100k_pop`)) %>%
  arrange(desc(max_suicides_100k_pop))

## # A tibble: 108 x 5
## # Groups:   year, sex, age [108]
##     year sex   age         generation max_suicides_100k_pop
##    <dbl> <chr> <chr>       <chr>                      <dbl>
##  1  2014 male  75+ years   Silent                      38.8
##  2  2015 male  75+ years   Silent                      38.8
##  3  2013 male  75+ years   Silent                      38.2
##  4  2012 male  75+ years   Silent                      37.4
##  5  2011 male  75+ years   Silent                      36.5
##  6  2007 male  75+ years   Silent                      36.4
##  7  2010 male  75+ years   Silent                      36.0
##  8  2008 male  75+ years   Silent                      35.8
##  9  2009 male  75+ years   Silent                      35.6
## 10  2014 male  55-74 years Boomers                     28.6
## #  with 98 more rows
…
